232658 737472 509
642386 394632 509
771287 114912 509
818944 786888 468
575569 968854 525
106396 286907 443
81566 891166 525
584964 245691 470
540097 573466 452
624276 606224 447
380300 315843 441
468904 977117 525
402738 872165 525
467712 88499 449
122885 937053 525
84839 301730 443
726527 393533 509
931727 669185 525
132260 560169 470
519184 566531 452
464830 568136 470
79730 511690 449
164073 143065 383
151806 766113 509
102891 561673 470
525454 753853 509
811867 310753 509
314647 984232 525
208638 3442 383
490882 569888 470
186615 64522 383
525979 96716 470
839834 221601 525
197829 193320 360
180739 55630 383
897183 821831 525
352580 847467 525
905131 108166 525
858298 438864 525
531206 845562 525
110403 627790 509
540789 151337 470
783719 997850 525
31284 972874 525
689365 209334 509
37894 621189 470
630746 698985 442
893017 614778 525
808425 434842 509
697783 184670 509
310728 240670 407
630504 523249 509
639898 710189 504
862211 230474 525
866998 589944 525
473348 875749 525
128081 517432 470
893850 724055 525
804807 95461 509
485963 677939 509
835141 243629 509
168405 926389 525
164575 371094 443
342493 800177 509
363478 606922 470
842132 59935 525
91893 127580 354
871808 182623 525
582357 733094 509
167262 763387 509
987066 408123 525
225829 84450 386
168184 390775 443
328752 316781 384
849867 256469 525
638827 233390 509
740535 67944 509
238944 581044 470
872933 827451 525
253678 38171 443
991203 139507 525
334931 61002 443
865015 941363 507
839946 873960 432
828772 774863 468
152779 161063 383
467257 561155 470
7869 802949 509
135538 48684 354
356031 641188 509
481995 558090 470
627766 499332 509
341 459155 449
664538 332314 509
88095 234743 443
214670 895260 525
249741 333430 407
966986 843535 507
588986 154655 470
663279 301798 509
982806 777469 525
275877 649158 509
701199 919204 525
761506 30995 509
337959 889290 525
421864 325054 449
690197 572402 509
96303 242632 443
148650 481181 449
831512 169848 509
708343 79902 509
623943 212408 470
918983 313731 525
242581 33013 443
863692 330472 525
345342 351074 441
464758 447917 444
232457 59840 443
367956 425803 449
114410 882704 525
250215 63506 443
391072 664621 509
402668 498194 449
325050 176752 443
79463 633138 509
44015 373723 443
177533 992677 525
65954 240948 443
815816 257214 509
640686 888678 525
541431 491145 470
780659 681400 504
420899 663945 509
638975 300216 509
651526 668465 442
442441 474576 444
257327 564666 470
293439 845683 525
250446 505653 449
765716 837781 468
241302 865895 525
970105 17497 525
290396 112775 443
650969 488993 509
742231 82058 509
166342 176207 347
49747 935397 525
101985 743122 509
524189 607278 452
147146 233729 443
299766 126268 443
342150 516045 470
432024 745933 509
695282 589584 509
839064 617661 525
134813 313224 443
476675 527306 470
195994 869866 525
844224 91307 525
143942 677517 509
678237 481596 509
918844 730645 525
43375 936868 525
103562 918222 525
614065 253260 470
933750 288869 525
514196 420847 470
252884 104530 443
615610 118507 470
455110 459107 356
179283 691905 509
576947 577272 390
278685 780607 509
530997 348271 470
222362 639102 509
378699 639550 509
692495 270467 509
811716 416510 509
202175 568599 470
747403 661609 504
230694 494941 449
83048 9819 351
752708 742493 393
69233 766348 509
66998 642223 509
93151 167105 383
191526 245075 443
154019 716709 509
236257 356102 441
306855 887735 525
697305 725946 504
540683 259586 470
94247 148828 375
497948 243353 449
663787 165785 509
875722 953941 507
505294 117133 449
136760 873060 525
255549 4596 443
980265 202604 525
942104 35397 525
181841 384063 443
952482 448356 525
171279 751566 509
362031 488647 449
54658 634917 509
102020 713800 509
571391 15884 470
639703 922381 525
510286 234948 449
912404 390592 525
284400 712284 509
417163 150104 449
621660 651347 509
276693 630762 509
436976 599807 470
920935 962016 507
884819 845851 432
850218 36690 525
649311 75756 509
697376 298545 509
381443 387717 374
208346 616080 470
198096 892671 525
19901 820540 509
866740 905601 445
350972 690684 509
849151 79747 525
276909 652058 509
58438 262840 443
788046 427217 509
285129 343278 389
656604 785490 504
228546 566735 470
776229 441778 509
921457 127399 525
904586 944681 507
180884 997436 525
170807 330177 443
465430 154081 449
530777 522101 408
633432 589497 509
354003 657606 509
114931 348432 443
52406 881069 525
775052 380368 509
603439 921212 525
576079 839160 525
44514 753512 509
432950 942332 525
